{
    "VCAP_SERVICES": {
        "xsuaa": [
            {
                "name": "webpushserver-app-uaa",
                "label": "xsuaa",
                "tags": [
                    "xsuaa"
                ],
                "credentials": {}
            }
        ]
    },
    "destinations": []
}
